<svg width="40" height="40" viewBox="0 0 40 40" fill="none" xmlns="http://www.w3.org/2000/svg">
<rect width="40" height="40" rx="8" fill="#F5F9FD"/>
<path fill-rule="evenodd" clip-rule="evenodd" d="M20 10C20.3787 10 20.725 10.214 20.8944 10.5528L29.8944 28.5528C30.1414 29.0468 29.9412 29.6474 29.4472 29.8944C28.9532 30.1414 28.3525 29.9412 28.1055 29.4472L20 13.2361L11.8944 29.4472C11.6474 29.9412 11.0467 30.1414 10.5528 29.8944C10.0588 29.6474 9.85856 29.0468 10.1055 28.5528L19.1055 10.5528C19.2749 10.214 19.6212 10 20 10Z" fill="#2E3A5B"/>
<path fill-rule="evenodd" clip-rule="evenodd" d="M14 22C14 21.4477 14.4477 21 15 21L25 21C25.5523 21 26 21.4477 26 22C26 22.5523 25.5523 23 25 23L15 23C14.4477 23 14 22.5523 14 22Z" fill="#2E3A5B"/>
</svg>
