<svg width="8" height="12" viewBox="0 0 8 12" fill="none" xmlns="http://www.w3.org/2000/svg">
<path d="M6.29294 0.292969L0.585938 5.99997L6.29294 11.707L7.70694 10.293L3.41394 5.99997L7.70694 1.70697L6.29294 0.292969Z" fill="#076AB9"/>
</svg>
