<svg width="20" height="19" viewBox="0 0 20 19" fill="none" xmlns="http://www.w3.org/2000/svg">
<path d="M18 0H2C0.897 0 0 0.897 0 2V13C0 14.103 0.897 15 2 15H9V17H6V19H14V17H11V15H18C19.103 15 20 14.103 20 13V2C20 0.897 19.103 0 18 0ZM2 11V2H18L18.002 11H2Z" fill="#0861BF"/>
</svg>
