<svg width="12" height="12" viewBox="0 0 12 12" fill="none" xmlns="http://www.w3.org/2000/svg">
<path d="M11.8333 5.1665H6.83333V0.166504H5.16666V5.1665H0.166664V6.83317H5.16666V11.8332H6.83333V6.83317H11.8333V5.1665Z" fill="#076AB9"/>
</svg>
