<svg width="20" height="20" viewBox="0 0 20 20" fill="none" xmlns="http://www.w3.org/2000/svg">
<path d="M4.16667 16.6665C4.16667 17.1085 4.34226 17.5325 4.65482 17.845C4.96738 18.1576 5.39131 18.3332 5.83333 18.3332H14.1667C14.6087 18.3332 15.0326 18.1576 15.3452 17.845C15.6577 17.5325 15.8333 17.1085 15.8333 16.6665V6.6665H17.5V4.99984H14.1667V3.33317C14.1667 2.89114 13.9911 2.46722 13.6785 2.15466C13.3659 1.8421 12.942 1.6665 12.5 1.6665H7.5C7.05797 1.6665 6.63405 1.8421 6.32149 2.15466C6.00893 2.46722 5.83333 2.89114 5.83333 3.33317V4.99984H2.5V6.6665H4.16667V16.6665ZM7.5 3.33317H12.5V4.99984H7.5V3.33317ZM6.66667 6.6665H14.1667V16.6665H5.83333V6.6665H6.66667Z" fill="#076AB9"/>
<path d="M7.5 8.3335H9.16667V15.0002H7.5V8.3335ZM10.8333 8.3335H12.5V15.0002H10.8333V8.3335Z" fill="#076AB9"/>
</svg>
